…
### Extract URI Annotations

``` r
extract_uris(
  system.file("extdata","imperfect-forward-secrecy-ccs15.pdf", package="pdfbox")
)
```

    ## # A tibble: 33 x 3
    ##     page                                                                                                  uri
    ##    <int>                                                                                                <chr>
    ##  1     1                                                                                   https://weakdh.org
    ##  2     6                                                                                          www.fbi.gov
    ##  3    12                                               http://cr.yp.to/factorization/smoothparts-20040510.pdf
    ##  4    12                                                                     http://caramel.loria.fr/p180.txt
    ##  5    12                                       http://www.hyperelliptic.org/tanja/SHARCS/talks06/thorsten.pdf
    ##  6    12                                       http://www.hyperelliptic.org/tanja/SHARCS/talks06/thorsten.pdf
    ##  7    13                                                                      https://www.olcf.ornl.gov/titan
    ##  8    13 http://www.spiegel.de/international/germany/inside-the-nsa-s-war-on-internet-security-a-1010361.html
    ##  9    13 http://www.spiegel.de/international/germany/inside-the-nsa-s-war-on-internet-security-a-1010361.html
    ## 10    13                                                                              http://www.sagemath.org
    ## # ... with 23 more rows, and 1 more variables: text <chr>
…
